Chapter 11 Supplementary Analyses | MSc Conversion in Psychological Studies/Science
…
Figure 11.6: Network graph of bigrams

## # A tibble: 30,134 x 3
##    word1     word2        n
##    <chr>     <chr>    <int>
##  1 freefolk  gt         165
##  2 togive    freefolk   164
##  3 se        tvtime     103
##  4 watched   episode     88
##  5 episode   se          86
##  6 ice       fire        85
##  7 song      ice         81
##  8 jonsnow   daenerys    73
##  9 bracelets fef         71
## 10 connected matter      71
## # ... with 30,124 more rows
…
